C:\workspace\kong-fubar\IOContainer\container-playground\src\main\java\kong\fubar\container\playground\samples\Fruit.java
C:\workspace\kong-fubar\IOContainer\container-playground\src\main\java\kong\fubar\container\playground\samples\Person.java
C:\workspace\kong-fubar\IOContainer\container-playground\src\main\java\kong\fubar\container\playground\App.java
C:\workspace\kong-fubar\IOContainer\container-playground\src\main\java\kong\fubar\container\playground\samples\Cake.java
